{"themes": {
	"giant-goldfish": {
		"primary": "#F38630",
		"secondary": "#009688",
		"backgroundColor": "#fdf0ca",
		"type": "light"
	},
	"sugar": {
		"primary": "#FE4365",
		"secondary": "#4ECDC4",
		"backgroundColor": "#fceadd",
		"type": "light"
	},
	"cheer-up": {
		"primary": "#00A8C6",
		"secondary": "#C44D58",
		"backgroundColor": "#edeff1",
		"type": "light"
	},
	"fresh-cut": {
		"primary": "#8FBE00",
		"secondary": "#00A8C6",
		"backgroundColor": "#F9F2E7",
		"type": "light"
	},
	"thought-provoking": {
		"primary": "#C02942",
		"secondary": "#c89f1c",
		"backgroundColor": "#542437",
		"type": "dark"
	},
	"dark": {
		"primary": "#946e58",
		"secondary": "#542437",
		"backgroundColor": "#774F38",
		"type": "dark"
	}
}}
